Categories:System
License:GPL-3.0
Web Site:https://gitlab.com/axet/android-media-merger
Source Code:https://gitlab.com/axet/android-media-merger/tree/HEAD
Issue Tracker:https://gitlab.com/axet/android-media-merger/issues

Auto Name:Media Merger
Summary:Merge media files, open-source
Description:
Utitily moves /sdcard/DCIM/* and /sdcard/Pictures/Screenshots to user specified
folder.

Android friendly. Application waits for event from ContentObserver, and only
then scan for new files, no ads, open-source, GPLv3.
.

Repo Type:git
Repo:https://gitlab.com/axet/android-media-merger.git

Build:1.2.45,59
    commit=mover-1.2.45
    subdir=app
    gradle=yes

Build:1.2.46,60
    commit=mover-1.2.46
    subdir=app
    gradle=yes

Build:1.2.52,66
    commit=mover-1.2.52
    subdir=app
    gradle=yes

Build:1.2.54,68
    commit=mover-1.2.54
    subdir=app
    gradle=yes

Build:1.2.56,70
    commit=mover-1.2.56
    subdir=app
    gradle=yes

Build:1.2.57,71
    commit=mover-1.2.57
    subdir=app
    gradle=yes

Build:1.2.58,72
    commit=mover-1.2.58
    subdir=app
    gradle=yes

Build:1.2.65,78
    commit=mover-1.2.65
    subdir=app
    gradle=yes

Build:1.2.66,79
    commit=mover-1.2.66
    subdir=app
    gradle=yes

Build:1.2.67,80
    commit=mover-1.2.67
    subdir=app
    gradle=yes

Build:1.2.68,81
    commit=mover-1.2.68
    subdir=app
    gradle=yes

Build:1.2.69,82
    commit=mover-1.2.69
    subdir=app
    gradle=yes

Build:1.2.70,83
    commit=mover-1.2.70
    subdir=app
    gradle=yes

Build:1.2.73,86
    commit=mover-1.2.73
    subdir=app
    gradle=yes

Build:1.2.75,88
    commit=mover-1.2.75
    subdir=app
    gradle=yes

Build:1.2.77,90
    commit=mover-1.2.77
    subdir=app
    gradle=yes

Build:1.2.78,91
    commit=mover-1.2.78
    subdir=app
    gradle=yes

Build:1.2.80,93
    commit=mover-1.2.80
    subdir=app
    gradle=yes

Build:1.2.81,94
    commit=mover-1.2.81
    subdir=app
    gradle=yes

Build:1.2.82,95
    commit=mover-1.2.82
    subdir=app
    gradle=yes

Build:1.2.83,96
    commit=mover-1.2.83
    subdir=app
    gradle=yes

Build:1.2.85,99
    commit=mover-1.2.85
    subdir=app
    gradle=yes

Auto Update Mode:Version mover-%v
Update Check Mode:Tags
Current Version:1.2.85
Current Version Code:99
